ABC of data visuals
…
```r
economics <- economics %>% 
mutate(date = lubridate::ymd(date))
economics
```

```
## # A tibble: 574 × 6
##    date         pce    pop psavert uempmed unemploy
##    <date>     <dbl>  <dbl>   <dbl>   <dbl>    <dbl>
##  1 1967-07-01  507. 198712    12.6     4.5     2944
##  2 1967-08-01  510. 198911    12.6     4.7     2945
##  3 1967-09-01  516. 199113    11.9     4.6     2958
##  4 1967-10-01  512. 199311    12.9     4.9     3143
##  5 1967-11-01  517. 199498    12.8     4.7     3066
##  6 1967-12-01  525. 199657    11.8     4.8     3018
##  7 1968-01-01  531. 199808    11.7     5.1     2878
##  8 1968-02-01  534. 199920    12.3     4.5     3001
##  9 1968-03-01  544. 200056    11.7     4.1     2877
## 10 1968-04-01  544  200208    12.3     4.6     2709
## # ℹ 564 more rows
```
…
]

.right-plot[

```
## # A tibble: 244 × 6
##    country_name country_code indicator_name                 indicator_code  year
##    <chr>        <chr>        <chr>                          <chr>          <dbl>
##  1 Afghanistan  AFG          Mortality rate, infant (per 1… SP.DYN.IMRT.IN  1960
##  2 Afghanistan  AFG          Mortality rate, infant (per 1… SP.DYN.IMRT.IN  1961
##  3 Afghanistan  AFG          Mortality rate, infant (per 1… SP.DYN.IMRT.IN  1962
##  4 Afghanistan  AFG          Mortality rate, infant (per 1… SP.DYN.IMRT.IN  1963
##  5 Afghanistan  AFG          Mortality rate, infant (per 1… SP.DYN.IMRT.IN  1964
##  6 Afghanistan  AFG          Mortality rate, infant (per 1… SP.DYN.IMRT.IN  1965
##  7 Afghanistan  AFG          Mortality rate, infant (per 1… SP.DYN.IMRT.IN  1966
##  8 Afghanistan  AFG          Mortality rate, infant (per 1… SP.DYN.IMRT.IN  1967
##  9 Afghanistan  AFG          Mortality rate, infant (per 1… SP.DYN.IMRT.IN  1968
## 10 Afghanistan  AFG          Mortality rate, infant (per 1… SP.DYN.IMRT.IN  1969
## # ℹ 234 more rows
## # ℹ 1 more variable: infant_mortality_rate <dbl>
```
…
```r
prop_change_infant_mortality <- subset_infant_mortality %>% 
  group_by(country_name) %>% 
  mutate(prop = (((infant_mortality_rate/lag(infant_mortality_rate, order_by = year))-1)*100)) %>% 
  drop_na(prop) %>% 
  mutate(cum_prop = cumsum(prop))
```

]

.right-plot[

```
## # A tibble: 234 × 8
## # Groups:   country_name [4]
##    country_name country_code indicator_name                 indicator_code  year
##    <chr>        <chr>        <chr>                          <chr>          <dbl>
##  1 Afghanistan  AFG          Mortality rate, infant (per 1… SP.DYN.IMRT.IN  1963
##  2 Afghanistan  AFG          Mortality rate, infant (per 1… SP.DYN.IMRT.IN  1964
##  3 Afghanistan  AFG          Mortality rate, infant (per 1… SP.DYN.IMRT.IN  1965
##  4 Afghanistan  AFG          Mortality rate, infant (per 1… SP.DYN.IMRT.IN  1966
##  5 Afghanistan  AFG          Mortality rate, infant (per 1… SP.DYN.IMRT.IN  1967
##  6 Afghanistan  AFG          Mortality rate, infant (per 1… SP.DYN.IMRT.IN  1968
##  7 Afghanistan  AFG          Mortality rate, infant (per 1… SP.DYN.IMRT.IN  1969
##  8 Afghanistan  AFG          Mortality rate, infant (per 1… SP.DYN.IMRT.IN  1970
##  9 Afghanistan  AFG          Mortality rate, infant (per 1… SP.DYN.IMRT.IN  1971
## 10 Afghanistan  AFG          Mortality rate, infant (per 1… SP.DYN.IMRT.IN  1972
## # ℹ 224 more rows
## # ℹ 3 more variables: infant_mortality_rate <dbl>, prop <dbl>, cum_prop <dbl>
```
…
